ML for Microbial Genomics
…
ℹ Use `spec()` to retrieve the full column specification for this data.
ℹ Specify the column types or set `show_col_types = FALSE` to quiet this message.

Data exploration

Let’s print the tibble to examine it quickly.

exp_featmat

# A tibble: 920 × 2,328
    s_no genome_id antibiotic amr_pheno   drug_class assembly_accession  prmA
   <dbl>     <dbl> <chr>      <chr>       <chr>      <chr>              <dbl>
 1     0     1280. penicillin Susceptible penicillin GCA_024925485.1        1
 2     1     1280. penicillin Susceptible penicillin GCA_024925485.1        1
 3     2     1280. penicillin Susceptible penicillin GCA_024972975.1        1
 4     3     1280. penicillin Susceptible penicillin GCA_024972975.1        1
 5     4     1280. penicillin Resistant   penicillin GCA_025232045.1        1
 6     5     1280. penicillin Resistant   penicillin GCA_025232045.1        1
 7     6    46170. penicillin Resistant   penicillin GCA_002204575.1        1
 8     7     1280. penicillin Susceptible penicillin GCA_002089075.2        1
 9     8     1280. penicillin Resistant   penicillin GCA_002089095.2        1
10     9     1280. penicillin Resistant   penicillin GCA_002097595.2        1
# ℹ 910 more rows
# ℹ 2,321 more variables: hisC_1 <dbl>, araB <dbl>, yqeN <dbl>, tagH_2 <dbl>,
#   `tet(38)` <dbl>, lrgB <dbl>, cmtB <dbl>, scmP_2 <dbl>, est_2 <dbl>,
#   glcB <dbl>, ponA <dbl>, clpX <dbl>, yiiM <dbl>, thiN <dbl>, ilvE <dbl>,
#   ydcV <dbl>, menH <dbl>, relA <dbl>, yicL <dbl>, rho <dbl>, guaA <dbl>,
#   hemB <dbl>, hemA <dbl>, glpQ_1 <dbl>, suhB <dbl>, tatC2 <dbl>, groL <dbl>,
#   glpK <dbl>, frdA <dbl>, yycI <dbl>, pepA_1 <dbl>, feuC <dbl>, miaA <dbl>, …
…
